Predicting bike ridership: developing a model
…
d %>%
  count(total_rainfall, sort = T)

# A tibble: 93 × 2
   total_rainfall     n
            <dbl> <int>
 1            0     655
 2            0.2    41
 3            0.4    14
 4            1.4    10
 5            1.6     8
 6            0.6     7
 7            3.6     7
 8            1       5
 9            0.8     4
10            3.8     4
# … with 83 more rows
…
