TidyTuesday 2020 Week 28
…
coffee %>% count(harvest_year)

# A tibble: 47 x 2
   harvest_year     n
   <chr>        <int>
 1 08/09 crop       2
 2 1t/2011          1
 3 1T/2011          1
 4 2009-2010        3
 5 2009 - 2010      1
 6 2009 / 2010      1
 7 2009/2010       12
 8 2010            10
 9 2010-2011        6
10 2011            26
# ... with 37 more rows
…
