Taylor Dunn: Advent of Code 2021: Days 6-10
…
I see why part 1 is asking about just the digits 1, 4, 7, and 8  they consist of a unique number of segments (2, 4, 3, and 7, respectively).

Split the input into the the signal patterns (ten unique values) and four digit output values:

day8_split <- strsplit(day8, " \\| ") %>%
  map(strsplit, " ")

day8_df <-
  tibble(
    signal_patterns = map(day8_split, 1),
    output = map(day8_split, 2)
  )
day8_df

# A tibble: 200 x 2
   signal_patterns output   
   <list>          <list>   
 1 <chr [10]>      <chr [4]>
 2 <chr [10]>      <chr [4]>
 3 <chr [10]>      <chr [4]>
 4 <chr [10]>      <chr [4]>
 5 <chr [10]>      <chr [4]>
 6 <chr [10]>      <chr [4]>
 7 <chr [10]>      <chr [4]>
 8 <chr [10]>      <chr [4]>
 9 <chr [10]>      <chr [4]>
10 <chr [10]>      <chr [4]>
# ... with 190 more rows
…
[1] 2 4 5 3

From these lengths, I know that the first digit is 1, the second digit is 4, the third digit is one of {2, 3, 5}, and the fourth digit is 7. We want to count the occurrences of 1, 4, 7 and 8, so this row contributes 3 to that count. Apply this logic to the full input:

part1_count <- day8_df %>%
  mutate(
    n_1_4_7_8 = map_int(
      output,
      ~sum(nchar(.x) %in% c(2, 3, 4, 7))
    )
  )
part1_count

# A tibble: 200 x 3
   signal_patterns output    n_1_4_7_8
   <list>          <list>        <int>
 1 <chr [10]>      <chr [4]>         4
 2 <chr [10]>      <chr [4]>         3
 3 <chr [10]>      <chr [4]>         3
 4 <chr [10]>      <chr [4]>         2
 5 <chr [10]>      <chr [4]>         1
 6 <chr [10]>      <chr [4]>         4
 7 <chr [10]>      <chr [4]>         3
 8 <chr [10]>      <chr [4]>         2
 9 <chr [10]>      <chr [4]>         2
10 <chr [10]>      <chr [4]>         4
# ... with 190 more rows
…
Now use each digit_map to determine the 4 digit output codes:

day8_df <- day8_df %>%
  mutate(
    output_decoded = map2_int(
      output, digit_map,
      ~as.integer(paste0(.y[.x], collapse = ""))
    )
  )
day8_df

# A tibble: 200 x 4
   signal_patterns output    digit_map         output_decoded
   <list>          <list>    <list>                     <int>
 1 <chr [10]>      <chr [4]> <named list [10]>           8417
 2 <chr [10]>      <chr [4]> <named list [10]>           1437
 3 <chr [10]>      <chr [4]> <named list [10]>           7157
 4 <chr [10]>      <chr [4]> <named list [10]>            247
 5 <chr [10]>      <chr [4]> <named list [10]>           9015
 6 <chr [10]>      <chr [4]> <named list [10]>           7714
 7 <chr [10]>      <chr [4]> <named list [10]>           7764
 8 <chr [10]>      <chr [4]> <named list [10]>           1425
 9 <chr [10]>      <chr [4]> <named list [10]>           9677
10 <chr [10]>      <chr [4]> <named list [10]>           4784
# ... with 190 more rows
…
corrupt_chars <- day10_df %>%
  mutate(line_num = 1:n()) %>%
  # Filter down to just corrupt lines
  filter(map_int(corrupt_loc, nrow) > 0) %>%
  transmute(
    line_num,
    corrupt_char = map2_chr(
      line_reduced, corrupt_loc,
      ~str_sub(.x, start = min(.y$end), end = min(.y$end))
    )
  )
corrupt_chars

# A tibble: 47 x 2
   line_num corrupt_char
      <int> <chr>       
 1        1 }           
 2        5 >           
 3        9 }           
 4       12 }           
 5       14 }           
 6       16 ]           
 7       17 }           
 8       18 >           
 9       21 ]           
10       22 ]           
# ... with 37 more rows
…
