Taylor Dunn: Advent of Code: Days 21-25
…
# Sample input
players <- tibble(pos1 = 4, score1 = 0, pos2 = 8, score2 = 0, n_univ = 1)
# After two turns
players %>%
  roll_dirac(player = 1) %>%
  roll_dirac(player = 2)

# A tibble: 49 x 5
    pos1 score1  pos2 score2 n_univ
   <dbl>  <dbl> <dbl>  <dbl>  <dbl>
 1     1      1     1      1      6
 2     1      1     2      2     18
 3     1      1     3      3     36
 4     1      1     4      4     42
 5     1      1     5      5     36
 6     1      1     6      6     18
 7     1      1     7      7      6
 8     2      2     1      1      3
 9     2      2     2      2      9
10     2      2     3      3     18
# ... with 39 more rows
…
