Advent of Code 2021: Days 16-20
…
Then it is just a matter of maximizing vy_start such that it lands at the lowest possible point in the target area, i.e. ymin. The highest possible vy_start is the one that will reach ymin in a single step from y = 0, i.e. vy_max = abs(ymin) - 1.

(vy_max <- abs(target_area$ymin) - 1)

[1] 109

Calculate the \(y\) trajectory for this initial velocity, use cumsum:

trajectory <- crossing(vy_max, step = 1:1000) %>%
  mutate(vy = vy_max - step + 1, y = cumsum(vy))
trajectory

# A tibble: 1,000 x 4
   vy_max  step    vy     y
    <dbl> <int> <dbl> <dbl>
 1    109     1   109   109
 2    109     2   108   217
 3    109     3   107   324
 4    109     4   106   430
 5    109     5   105   535
 6    109     6   104   639
 7    109     7   103   742
 8    109     8   102   844
 9    109     9   101   945
10    109    10   100  1045
# ... with 990 more rows
…
How many distinct initial velocity values cause the probe to be within the target area after any step?

Find candidate \(y\) velocities, which reach the target area at some step in their trajectories:

vy_candidates <-
  crossing(vy_start = seq(target_area$ymin, vy_max), step = 1:1000) %>%
  mutate(vy = vy_start - step + 1) %>%
  group_by(vy_start) %>%
  mutate(y = cumsum(vy)) %>%
  ungroup() %>%
  filter(between(y, target_area$ymin, target_area$ymax)) %>%
  select(-vy)
vy_candidates

# A tibble: 268 x 3
   vy_start  step     y
      <int> <int> <dbl>
 1     -110     1  -110
 2     -109     1  -109
 3     -108     1  -108
 4     -107     1  -107
 5     -106     1  -106
 6     -105     1  -105
 7     -104     1  -104
 8     -103     1  -103
 9     -102     1  -102
10     -101     1  -101
# ... with 258 more rows

There are 192 unique starting \(v_y\) values which will reach the \(y\) target. Do the same for the \(x\) target:

vx_candidates <- 
  crossing(vx_start = 1:target_area$xmax, step = 1:1000) %>%
  mutate(vx = vx_start - step + 1, vx = ifelse(vx < 0, 0, vx)) %>%
  group_by(vx_start) %>%
  mutate(x = cumsum(vx)) %>%
  ungroup() %>%
  filter(between(x, target_area$xmin, target_area$xmax)) %>%
  select(-vx)
vx_candidates

# A tibble: 2,125 x 3
   vx_start  step     x
      <int> <int> <dbl>
 1       18    13   156
 2       18    14   161
 3       18    15   165
 4       18    16   168
 5       18    17   170
 6       18    18   171
 7       18    19   171
 8       18    20   171
 9       18    21   171
10       18    22   171
# ... with 2,115 more rows

There are 121 unique starting \(v_x\) values which will reach the \(x\) target.

To determine which combination of \(v_x\) and \(v_y\) are valid, I need to find the combinations that line up in steps taken to reach the target:

vxy_candidates <- vx_candidates %>%
  inner_join(vy_candidates, by = "step") %>%
  filter(!is.na(vx_start), !is.na(vy_start))
vxy_candidates %>%
  group_by(vx_start, vy_start) %>%
  summarise(steps = str_c(step, collapse = ", "))

# A tibble: 3,202 x 3
# Groups:   vx_start [121]
   vx_start vy_start steps     
      <int>    <int> <chr>     
 1       18       -2 13        
 2       18       -1 13, 14    
 3       18        0 13, 14, 15
 4       18        1 14, 15, 16
 5       18        2 15, 16, 17
 6       18        3 16, 17, 18
 7       18        4 18, 19, 20
 8       18        5 19, 20, 21
 9       18        6 20, 21, 22
10       18        7 22, 23, 24
# ... with 3,192 more rows
…
